{
  "project_info": {
    "project_number": "740696434950",
    "project_id": "ottplatform-a72c3",
    "storage_bucket": "ottplatform-a72c3.appspot.com"
  },
  "client": [
    {
      "client_info": {
        "mobilesdk_app_id": "1:740696434950:android:0d350306a2e8436e261687",
        "android_client_info": {
          "package_name": "com.wecodelife.ott"
        }
      },
      "oauth_client": [
        {
          "client_id": "740696434950-lk79gnntqtd45ghlm0a2vncl0cvklc59.apps.googleusercontent.com",
          "client_type": 1,
          "android_info": {
            "package_name": "com.wecodelife.ott",
            "certificate_hash": "fd5b23c4c9f615b49c7e0d8a94421ad8f91ebc79"
          }
        },
        {
          "client_id": "740696434950-bb8lhgbhjgm33k0via4720pgvhvhngns.apps.googleusercontent.com",
          "client_type": 3
        }
      ],
      "api_key": [
        {
          "current_key": "AIzaSyBqkZ9pxB5-DAWPtIS1JWPrc4TBbOEgVwo"
        }
      ],
      "services": {
        "appinvite_service": {
          "other_platform_oauth_client": [
            {
              "client_id": "740696434950-bb8lhgbhjgm33k0via4720pgvhvhngns.apps.googleusercontent.com",
              "client_type": 3
            }
          ]
        }
      }
    }
  ],
  "configuration_version": "1"
}